{
  "Items": [
    {
      "Id": {
        "S": "b5ef5bba-fa5e-40f3-98d4-d0a23234ad69"
      },
      "Email": {
        "S": "someuser@gmail.com"
      },
      "Address": {
        "M": {
          "Number": {
            "N": "127"
          },
          "Street": {
            "S": "big avenue"
          }
        }
      },
      "Name": {
        "S": "Some User"
      }
    },
    {
      "Id": {
        "S": "e37706c5-2956-4999-afa5-aec6c5d9a7a6"
      },
      "Email": {
        "S": "anotheruser@gmail.com"
      },
      "Name": {
        "S": "Another User"
      }
    }
  ],
  "Count": 2,
  "ScannedCount": 2
}
